/media/abduvohid/New Volume/epam_lab/module#4/module_2.-rest-api-basics/api/src/main/java/com/epam/esm/config/AuthServerConfigData.java
/media/abduvohid/New Volume/epam_lab/module#4/module_2.-rest-api-basics/api/src/main/java/com/epam/esm/controller/UserController.java
/media/abduvohid/New Volume/epam_lab/module#4/module_2.-rest-api-basics/api/src/main/java/com/epam/esm/initializer/ApplicationInitializer.java
/media/abduvohid/New Volume/epam_lab/module#4/module_2.-rest-api-basics/api/src/main/java/com/epam/esm/controller/GiftCertificateController.java
/media/abduvohid/New Volume/epam_lab/module#4/module_2.-rest-api-basics/api/src/main/java/com/epam/esm/config/ResourceServerConfig.java
/media/abduvohid/New Volume/epam_lab/module#4/module_2.-rest-api-basics/api/src/main/java/com/epam/esm/ApiApplication.java
/media/abduvohid/New Volume/epam_lab/module#4/module_2.-rest-api-basics/api/src/main/java/com/epam/esm/controller/TagController.java
