{
	"info": {
		"_postman_id": "c8619556-e21a-4805-880d-f3463997215d",
		"name": "rest API",
		"schema": "https://schema.getpostman.com/json/collection/v2.1.0/collection.json"
	},
	"item": [
		{
			"name": "GET Gift_Certificates with sorting or not",
			"request": {
				"method": "GET",
				"header": [],
				"url": {
					"raw": "{{rest-uri}}/gift_certificate?page=0&size=5",
					"host": [
						"{{rest-uri}}"
					],
					"path": [
						"gift_certificate"
					],
					"query": [
						{
							"key": "sort-by-name-asc",
							"value": "false",
							"disabled": true
						},
						{
							"key": "sort-by-create_date-asc",
							"value": "false",
							"disabled": true
						},
						{
							"key": "sort-by-last_update_date-asc",
							"value": "true",
							"disabled": true
						},
						{
							"key": "page",
							"value": "0"
						},
						{
							"key": "size",
							"value": "5"
						},
						{
							"key": "sort",
							"value": "name,desc",
							"disabled": true
						},
						{
							"key": "sort",
							"value": "id,asc",
							"disabled": true
						},
						{
							"key": "name",
							"value": "ABCDDDDD",
							"disabled": true
						},
						{
							"key": "duration",
							"value": "32,22",
							"disabled": true
						},
						{
							"key": "create_date",
							"value": "2027-08-29 06:12:15",
							"disabled": true
						},
						{
							"key": "tag_names",
							"value": "11",
							"disabled": true
						}
					]
				}
			},
			"response": []
		},
		{
			"name": "GET CERTIFICATE BY TAGS (AND CONDITION)",
			"request": {
				"method": "GET",
				"header": [],
				"url": {
					"raw": "{{rest-uri}}/gift_certificate/tags?tag_name=1234,11",
					"host": [
						"{{rest-uri}}"
					],
					"path": [
						"gift_certificate",
						"tags"
					],
					"query": [
						{
							"key": "tag_name",
							"value": "1234,11"
						}
					]
				}
			},
			"response": []
		},
		{
			"name": "SAVE Gift_Certificate",
			"request": {
				"method": "POST",
				"header": [],
				"body": {
					"mode": "raw",
					"raw": "{\n    \"price\": 1232221123.93,\n    \"duration\": 3332,\n    \"create_date\": \"2026-08-29 06:12:15\",\n    \"last_update_date\": \"2026-08-29 06:12:15\",\n    \"name\": \"ABCDDDDD\",\n    \"tags\": [\n        {\n            \"name\": \"1234\"\n        }\n    ]\n}",
					"options": {
						"raw": {
							"language": "json"
						}
					}
				},
				"url": {
					"raw": "{{rest-uri}}/gift_certificate",
					"host": [
						"{{rest-uri}}"
					],
					"path": [
						"gift_certificate"
					]
				}
			},
			"response": []
		},
		{
			"name": "GET Gift_Certificates BY ID",
			"request": {
				"method": "GET",
				"header": [],
				"url": {
					"raw": "{{rest-uri}}/gift_certificate/3",
					"host": [
						"{{rest-uri}}"
					],
					"path": [
						"gift_certificate",
						"3"
					]
				}
			},
			"response": []
		},
		{
			"name": "DELET Gift_Certificate",
			"request": {
				"method": "DELETE",
				"header": [],
				"url": {
					"raw": "{{rest-uri}}/gift_certificate/2",
					"host": [
						"{{rest-uri}}"
					],
					"path": [
						"gift_certificate",
						"2"
					]
				}
			},
			"response": []
		},
		{
			"name": "UPDATE GIFT_Certificate",
			"request": {
				"method": "PUT",
				"header": [],
				"body": {
					"mode": "raw",
					"raw": "{\n    \"id\": 3,\n    \"description\": \"Duis bibendum. Morbi non quam nec dui luctus rutrum. Nulla tellus. In sagittis dui vel nisl.\",\n    \"price\": 52.0,\n    \"duration\": 2,\n    \"create_date\": \"2026-08-29 06:12:15\",\n    \"last_update_date\": \"2026-08-29 06:12:15\",\n    \"tags\": [\n        {\n            \"id\": 6,\n            \"name\": \"Little Fugitive\"\n        },\n        {\n            \"id\": 227,\n            \"name\": \"Housemaid, The (Hanyo)\"\n        },\n        {\n            \"id\": 884,\n            \"name\": \"Great Lie, The\"\n        },\n        {\n            \"id\": 181,\n            \"name\": \"Half Moon Street\"\n        },\n        {\n            \"id\": 791,\n            \"name\": \"Gabriel Over the White House\"\n        }\n    ],\n    \"name\": \"Lura Suttill\"\n}",
					"options": {
						"raw": {
							"language": "json"
						}
					}
				},
				"url": {
					"raw": "{{rest-uri}}/gift_certificate",
					"host": [
						"{{rest-uri}}"
					],
					"path": [
						"gift_certificate"
					]
				}
			},
			"response": []
		},
		{
			"name": "BATCH UPDATE GIFT_Certificate",
			"request": {
				"method": "PUT",
				"header": [],
				"body": {
					"mode": "raw",
					"raw": "[\n    {\n        \"name\": \"ABCD1231230\",\n        \"id\": 1,\n        \"description\": \"DESCRIOT00\",\n        \"price\": 1.03,\n        \"duration\": 4,\n        \"create_date\": \"2018-08-29 06:12:15\",\n        \"last_update_date\": \"2020-08-29 06:12:15\",\n        \"tags\": [\n            {\n                \"name\": \"ABCD\",\n                \"id\": 1\n            }\n        ]\n    },\n    {\n        \"name\": \"0000ABCD\",\n        \"id\": 2,\n        \"description\": \"DESCRIOT9999\",\n        \"price\": 1.03,\n        \"duration\": 4,\n        \"create_date\": \"2018-08-29 06:12:15\",\n        \"last_update_date\": \"2019-08-29 06:12:15\"\n    }\n]",
					"options": {
						"raw": {
							"language": "json"
						}
					}
				},
				"url": {
					"raw": "{{rest-uri}}/gift_certificate/batch-update",
					"host": [
						"{{rest-uri}}"
					],
					"path": [
						"gift_certificate",
						"batch-update"
					]
				}
			},
			"response": []
		},
		{
			"name": "Get TAGS",
			"request": {
				"method": "GET",
				"header": [],
				"url": {
					"raw": "{{rest-uri}}/tag/",
					"host": [
						"{{rest-uri}}"
					],
					"path": [
						"tag",
						""
					],
					"query": [
						{
							"key": "page",
							"value": "0",
							"disabled": true
						},
						{
							"key": "size",
							"value": "3",
							"disabled": true
						},
						{
							"key": "sort",
							"value": "name,asc",
							"disabled": true
						},
						{
							"key": "name",
							"value": "999999999",
							"disabled": true
						}
					]
				}
			},
			"response": []
		},
		{
			"name": "Get TAGS BY ID",
			"request": {
				"method": "GET",
				"header": [],
				"url": {
					"raw": "{{rest-uri}}/tag/11115",
					"host": [
						"{{rest-uri}}"
					],
					"path": [
						"tag",
						"11115"
					]
				}
			},
			"response": []
		},
		{
			"name": "Create Tag",
			"request": {
				"method": "POST",
				"header": [],
				"body": {
					"mode": "raw",
					"raw": "{\n    \"name\": \"11\",\n    \"giftCertificates\": [\n        {\n            \"id\":13,\n            \"name\": \"66666\",\n            \"price\": 1232221.93,\n            \"duration\": 32,\n            \"create_date\": \"2017-08-29 06:12:15\",\n            \"last_update_date\": \"2027-08-29 06:12:15\"\n        },\n         {\n            \"name\": \"777777\",\n            \"id\":14,\n            \"price\": 1232221.93,\n            \"duration\": 32,\n            \"create_date\": \"2017-08-29 06:12:15\",\n            \"last_update_date\": \"2027-08-29 06:12:15\"\n        }\n    ]\n}",
					"options": {
						"raw": {
							"language": "json"
						}
					}
				},
				"url": {
					"raw": "{{rest-uri}}/tag",
					"host": [
						"{{rest-uri}}"
					],
					"path": [
						"tag"
					]
				}
			},
			"response": []
		},
		{
			"name": "Delete Tag By ID",
			"request": {
				"method": "DELETE",
				"header": [],
				"url": {
					"raw": "{{rest-uri}}/tag/11115",
					"host": [
						"{{rest-uri}}"
					],
					"path": [
						"tag",
						"11115"
					]
				}
			},
			"response": []
		},
		{
			"name": "GET Tag By NAME",
			"request": {
				"method": "GET",
				"header": [],
				"url": {
					"raw": "{{rest-uri}}/tag/get-by-name/ABCDasdf123",
					"host": [
						"{{rest-uri}}"
					],
					"path": [
						"tag",
						"get-by-name",
						"ABCDasdf123"
					]
				}
			},
			"response": []
		},
		{
			"name": "GET GIFT Certificate By Tag Name",
			"request": {
				"method": "GET",
				"header": [],
				"url": {
					"raw": "{{rest-uri}}/gift_certificate/get-by-tag-name/ABCD",
					"host": [
						"{{rest-uri}}"
					],
					"path": [
						"gift_certificate",
						"get-by-tag-name",
						"ABCD"
					]
				}
			},
			"response": []
		},
		{
			"name": "GET GIFT Certificate By Description",
			"request": {
				"method": "GET",
				"header": [],
				"url": {
					"raw": "{{rest-uri}}/gift_certificate/get-by-description/Lura Suttill",
					"host": [
						"{{rest-uri}}"
					],
					"path": [
						"gift_certificate",
						"get-by-description",
						"Lura Suttill"
					]
				}
			},
			"response": []
		},
		{
			"name": "GETTING USERS",
			"request": {
				"method": "GET",
				"header": [],
				"url": {
					"raw": "{{rest-uri}}/user?page=49",
					"host": [
						"{{rest-uri}}"
					],
					"path": [
						"user"
					],
					"query": [
						{
							"key": "phoneNumber",
							"value": "123456789",
							"disabled": true
						},
						{
							"key": "firstName",
							"value": "UNKNOWN",
							"disabled": true
						},
						{
							"key": "lastName",
							"value": "UNKNOWN",
							"disabled": true
						},
						{
							"key": "address",
							"value": "UCHTEPA STREET",
							"disabled": true
						},
						{
							"key": "age",
							"value": "12",
							"disabled": true
						},
						{
							"key": "sort",
							"value": "age,asc",
							"disabled": true
						},
						{
							"key": "page",
							"value": "49"
						},
						{
							"key": "size",
							"value": "2",
							"disabled": true
						}
					]
				}
			},
			"response": []
		},
		{
			"name": "GETTING USERS BY ID",
			"request": {
				"method": "GET",
				"header": [],
				"url": {
					"raw": "{{rest-uri}}/user/3",
					"host": [
						"{{rest-uri}}"
					],
					"path": [
						"user",
						"3"
					]
				}
			},
			"response": []
		},
		{
			"name": "CREATE NEW USER",
			"request": {
				"method": "POST",
				"header": [],
				"body": {
					"mode": "raw",
					"raw": "{\n    \"phoneNumber\": \"123456789\",\n    \"firstName\": \"UNKNOWN\",\n    \"lastName\": \"UNKNOWN\",\n    \"address\": \"UCHTEPA STREET\",\n    \"age\": 12\n}",
					"options": {
						"raw": {
							"language": "json"
						}
					}
				},
				"url": {
					"raw": "{{rest-uri}}/user",
					"host": [
						"{{rest-uri}}"
					],
					"path": [
						"user"
					]
				}
			},
			"response": []
		},
		{
			"name": "BUY CERTIFICATE FOR USER",
			"request": {
				"method": "POST",
				"header": [],
				"url": {
					"raw": "{{rest-uri}}/user/3/certificate/10",
					"host": [
						"{{rest-uri}}"
					],
					"path": [
						"user",
						"3",
						"certificate",
						"10"
					]
				}
			},
			"response": []
		},
		{
			"name": "GET USER ORDERS",
			"request": {
				"method": "GET",
				"header": [],
				"url": {
					"raw": "{{rest-uri}}/user/3/certificates",
					"host": [
						"{{rest-uri}}"
					],
					"path": [
						"user",
						"3",
						"certificates"
					]
				}
			},
			"response": []
		},
		{
			"name": "GET USER MOST WIDELY TAG AND HIGHEST COST",
			"request": {
				"method": "GET",
				"header": [],
				"url": {
					"raw": "{{rest-uri}}/user/most/3",
					"host": [
						"{{rest-uri}}"
					],
					"path": [
						"user",
						"most",
						"3"
					]
				}
			},
			"response": []
		}
	]
}