com/epam/esm/mapping/GiftCertificateMapper.class
com/epam/esm/mapping/UserMapper.class
com/epam/esm/dto/TagDto.class
com/epam/esm/value/UserRoles$1.class
com/epam/esm/dto/ResultItems$PagedMetadata.class
com/epam/esm/model/User.class
com/epam/esm/dto/ResultItems$Metadata.class
com/epam/esm/mapping/TagMapperImpl.class
com/epam/esm/model/TagResult.class
com/epam/esm/value/UserAuthority.class
com/epam/esm/model/BaseEntity.class
com/epam/esm/model/UserPrincipal.class
com/epam/esm/value/UserRoles.class
com/epam/esm/model/Tag.class
com/epam/esm/dto/AuthRequestDTO.class
com/epam/esm/dto/BaseDto.class
com/epam/esm/dto/PagedResult.class
com/epam/esm/mapping/UserGiftCertificateMapperImpl.class
com/epam/esm/dto/UserDto.class
com/epam/esm/mapping/BaseMapper.class
com/epam/esm/value/UserRoles$Converter.class
com/epam/esm/mapping/UserMapperImpl.class
com/epam/esm/dto/UserGiftCertificateDto.class
com/epam/esm/dto/GiftCertificateDto.class
com/epam/esm/mapping/GiftCertificateMapperImpl.class
com/epam/esm/mapping/UserGiftCertificateMapper.class
com/epam/esm/model/UserGiftCertificate.class
com/epam/esm/dto/ResultItems.class
com/epam/esm/config/AuditingConfig.class
com/epam/esm/mapping/TagMapper.class
com/epam/esm/model/GiftCertificate.class
