/media/abduvohid/New Volume/epam_lab/module#4/module_2.-rest-api-basics/domain/src/main/java/com/epam/esm/mapping/GiftCertificateMapper.java
/media/abduvohid/New Volume/epam_lab/module#4/module_2.-rest-api-basics/domain/src/main/java/com/epam/esm/dto/GiftCertificateDto.java
/media/abduvohid/New Volume/epam_lab/module#4/module_2.-rest-api-basics/domain/src/main/java/com/epam/esm/model/UserPrincipal.java
/media/abduvohid/New Volume/epam_lab/module#4/module_2.-rest-api-basics/domain/src/main/java/com/epam/esm/dto/UserDto.java
/media/abduvohid/New Volume/epam_lab/module#4/module_2.-rest-api-basics/domain/src/main/java/com/epam/esm/value/UserRoles.java
/media/abduvohid/New Volume/epam_lab/module#4/module_2.-rest-api-basics/domain/src/main/java/com/epam/esm/model/Tag.java
/media/abduvohid/New Volume/epam_lab/module#4/module_2.-rest-api-basics/domain/src/main/java/com/epam/esm/model/TagResult.java
/media/abduvohid/New Volume/epam_lab/module#4/module_2.-rest-api-basics/domain/src/main/java/com/epam/esm/dto/BaseDto.java
/media/abduvohid/New Volume/epam_lab/module#4/module_2.-rest-api-basics/domain/src/main/java/com/epam/esm/mapping/BaseMapper.java
/media/abduvohid/New Volume/epam_lab/module#4/module_2.-rest-api-basics/domain/src/main/java/com/epam/esm/model/User.java
/media/abduvohid/New Volume/epam_lab/module#4/module_2.-rest-api-basics/domain/src/main/java/com/epam/esm/config/AuditingConfig.java
/media/abduvohid/New Volume/epam_lab/module#4/module_2.-rest-api-basics/domain/src/main/java/com/epam/esm/dto/UserGiftCertificateDto.java
/media/abduvohid/New Volume/epam_lab/module#4/module_2.-rest-api-basics/domain/src/main/java/com/epam/esm/mapping/TagMapper.java
/media/abduvohid/New Volume/epam_lab/module#4/module_2.-rest-api-basics/domain/src/main/java/com/epam/esm/value/UserAuthority.java
/media/abduvohid/New Volume/epam_lab/module#4/module_2.-rest-api-basics/domain/src/main/java/com/epam/esm/dto/AuthRequestDTO.java
/media/abduvohid/New Volume/epam_lab/module#4/module_2.-rest-api-basics/domain/src/main/java/com/epam/esm/mapping/UserGiftCertificateMapper.java
/media/abduvohid/New Volume/epam_lab/module#4/module_2.-rest-api-basics/domain/src/main/java/com/epam/esm/dto/TagDto.java
/media/abduvohid/New Volume/epam_lab/module#4/module_2.-rest-api-basics/domain/src/main/java/com/epam/esm/mapping/UserMapper.java
/media/abduvohid/New Volume/epam_lab/module#4/module_2.-rest-api-basics/domain/src/main/java/com/epam/esm/model/UserGiftCertificate.java
/media/abduvohid/New Volume/epam_lab/module#4/module_2.-rest-api-basics/domain/src/main/java/com/epam/esm/model/BaseEntity.java
/media/abduvohid/New Volume/epam_lab/module#4/module_2.-rest-api-basics/domain/src/main/java/com/epam/esm/model/GiftCertificate.java
/media/abduvohid/New Volume/epam_lab/module#4/module_2.-rest-api-basics/domain/src/main/java/com/epam/esm/dto/ResultItems.java
/media/abduvohid/New Volume/epam_lab/module#4/module_2.-rest-api-basics/domain/src/main/java/com/epam/esm/dto/PagedResult.java
