com/epam/esm/utils/OrdersHelper.class
com/epam/esm/exception/BaseException.class
com/epam/esm/config/PrivateKeyConfigData.class
com/epam/esm/exception/CustomNotFoundException.class
com/epam/esm/exception/DatabaseException.class
com/epam/esm/utils/DateFormatter.class
com/epam/esm/exception/handling/ErrorResults.class
com/epam/esm/exception/handling/ApiErrorMessages.class
com/epam/esm/config/AppConfig.class
com/epam/esm/config/DatabaseConfigData.class
com/epam/esm/constant/Queries.class
com/epam/esm/exception/BadRequestException.class
com/epam/esm/exception/handling/RestExceptionHandler.class
