/media/abduvohid/New Volume/epam_lab/module#4/module_2.-rest-api-basics/config-data/src/main/java/com/epam/esm/exception/DatabaseException.java
/media/abduvohid/New Volume/epam_lab/module#4/module_2.-rest-api-basics/config-data/src/main/java/com/epam/esm/utils/OrdersHelper.java
/media/abduvohid/New Volume/epam_lab/module#4/module_2.-rest-api-basics/config-data/src/main/java/com/epam/esm/utils/DateFormatter.java
/media/abduvohid/New Volume/epam_lab/module#4/module_2.-rest-api-basics/config-data/src/main/java/com/epam/esm/exception/CustomNotFoundException.java
/media/abduvohid/New Volume/epam_lab/module#4/module_2.-rest-api-basics/config-data/src/main/java/com/epam/esm/config/PrivateKeyConfigData.java
/media/abduvohid/New Volume/epam_lab/module#4/module_2.-rest-api-basics/config-data/src/main/java/com/epam/esm/config/DatabaseConfigData.java
/media/abduvohid/New Volume/epam_lab/module#4/module_2.-rest-api-basics/config-data/src/main/java/com/epam/esm/exception/BadRequestException.java
/media/abduvohid/New Volume/epam_lab/module#4/module_2.-rest-api-basics/config-data/src/main/java/com/epam/esm/exception/BaseException.java
/media/abduvohid/New Volume/epam_lab/module#4/module_2.-rest-api-basics/config-data/src/main/java/com/epam/esm/config/AppConfig.java
/media/abduvohid/New Volume/epam_lab/module#4/module_2.-rest-api-basics/config-data/src/main/java/com/epam/esm/exception/handling/ApiErrorMessages.java
/media/abduvohid/New Volume/epam_lab/module#4/module_2.-rest-api-basics/config-data/src/main/java/com/epam/esm/constant/Queries.java
/media/abduvohid/New Volume/epam_lab/module#4/module_2.-rest-api-basics/config-data/src/main/java/com/epam/esm/exception/handling/ErrorResults.java
/media/abduvohid/New Volume/epam_lab/module#4/module_2.-rest-api-basics/config-data/src/main/java/com/epam/esm/exception/handling/RestExceptionHandler.java
