com/epam/esm/services/GiftCertificateServiceV2.class
com/epam/esm/specs/TagSpecs.class
com/epam/esm/specs/BaseSpecs.class
com/epam/esm/specs/UserGiftCertificateSpecs.class
com/epam/esm/services/BaseService.class
com/epam/esm/specs/GiftCertificateSpecs.class
com/epam/esm/services/UserGiftCertificateService.class
com/epam/esm/services/UserService.class
com/epam/esm/services/TagServiceV2.class
com/epam/esm/specs/UserSpecs.class
com/epam/esm/services/UserPrincipalService.class
